%YAML 1.1
%TAG !u! tag:unity3d.com,2011:
--- !u!114 &11400000
MonoBehaviour:
  m_ObjectHideFlags: 0
  m_CorrespondingSourceObject: {fileID: 0}
  m_PrefabInstance: {fileID: 0}
  m_PrefabAsset: {fileID: 0}
  m_GameObject: {fileID: 0}
  m_Enabled: 1
  m_EditorHideFlags: 0
  m_Script: {fileID: 11500000, guid: cd13515680a475d4aab34da466586f27, type: 3}
  m_Name: Sword
  m_EditorClassIdentifier: 
  itemIcon: {fileID: 0}
  itemName: Sword
  modelPrefab: {fileID: 1823263105146128595, guid: a3c3bc181efb2ea41ae37b437933a598, type: 3}
  isUnarmed: 0
